EESchema Schematic File Version 4
LIBS:ni12_clock-cache
EELAYER 26 0
EELAYER END
$Descr A4 8268 11693 portrait
encoding utf-8
Sheet 8 10
Title ""
Date ""
Rev ""
Comp ""
Comment1 ""
Comment2 ""
Comment3 ""
Comment4 ""
$EndDescr
$Comp
L Transistor_BJT:MPSA92 Q37
U 1 1 5CC3D202
P 3850 6000
AR Path="/5CB10040/5CC3D202" Ref="Q37"  Part="1" 
AR Path="/5CBC3935/5CC3D202" Ref="Q?"  Part="1" 
AR Path="/5CBC3C3E/5CC3D202" Ref="Q?"  Part="1" 
AR Path="/5CBC3F24/5CC3D202" Ref="Q?"  Part="1" 
F 0 "Q37" H 4041 6046 50  0000 L CNN
F 1 "MPSA92" H 4041 5955 50  0000 L CNN
F 2 "Package_TO_SOT_SMD:SOT-23_Handsoldering" H 4050 5925 50  0001 L CIN
F 3 "http://www.onsemi.com/pub_link/Collateral/MPSA92-D.PDF" H 3850 6000 50  0001 L CNN
	1    3850 6000
	1    0    0    -1  
$EndComp
$Comp
L Device:R R44
U 1 1 5CC3D205
P 3400 6000
AR Path="/5CB10040/5CC3D205" Ref="R44"  Part="1" 
AR Path="/5CBC3935/5CC3D205" Ref="R?"  Part="1" 
AR Path="/5CBC3C3E/5CC3D205" Ref="R?"  Part="1" 
AR Path="/5CBC3F24/5CC3D205" Ref="R?"  Part="1" 
F 0 "R44" V 3193 6000 50  0000 C CNN
F 1 "10k" V 3284 6000 50  0000 C CNN
F 2 "Resistor_SMD:R_0603_1608Metric" V 3330 6000 50  0001 C CNN
F 3 "~" H 3400 6000 50  0001 C CNN
	1    3400 6000
	0    1    1    0   
$EndComp
Wire Wire Line
	3550 6000 3650 6000
$Comp
L power:GND #PWR060
U 1 1 5CC3D208
P 3950 6350
AR Path="/5CB10040/5CC3D208" Ref="#PWR060"  Part="1" 
AR Path="/5CBC3935/5CC3D208" Ref="#PWR?"  Part="1" 
AR Path="/5CBC3C3E/5CC3D208" Ref="#PWR?"  Part="1" 
AR Path="/5CBC3F24/5CC3D208" Ref="#PWR?"  Part="1" 
F 0 "#PWR060" H 3950 6100 50  0001 C CNN
F 1 "GND" H 3955 6177 50  0000 C CNN
F 2 "" H 3950 6350 50  0001 C CNN
F 3 "" H 3950 6350 50  0001 C CNN
	1    3950 6350
	1    0    0    -1  
$EndComp
Wire Wire Line
	3950 6350 3950 6200
$Comp
L 4xxx:4028 U6
U 1 1 5CC3D20A
P 1750 4350
AR Path="/5CB10040/5CC3D20A" Ref="U6"  Part="1" 
AR Path="/5CBC3935/5CC3D20A" Ref="U?"  Part="1" 
AR Path="/5CBC3C3E/5CC3D20A" Ref="U?"  Part="1" 
AR Path="/5CBC3F24/5CC3D20A" Ref="U?"  Part="1" 
F 0 "U6" H 1750 5231 50  0000 C CNN
F 1 "4028" H 1750 5140 50  0000 C CNN
F 2 "Package_SO:SOIC-16_3.9x9.9mm_P1.27mm" H 1750 4350 50  0001 C CNN
F 3 "http://www.intersil.com/content/dam/Intersil/documents/cd40/cd4028bms.pdf" H 1750 4350 50  0001 C CNN
	1    1750 4350
	1    0    0    -1  
$EndComp
$Comp
L power:GND #PWR054
U 1 1 5CC3D20E
P 1750 5250
AR Path="/5CB10040/5CC3D20E" Ref="#PWR054"  Part="1" 
AR Path="/5CBC3935/5CC3D20E" Ref="#PWR?"  Part="1" 
AR Path="/5CBC3C3E/5CC3D20E" Ref="#PWR?"  Part="1" 
AR Path="/5CBC3F24/5CC3D20E" Ref="#PWR?"  Part="1" 
F 0 "#PWR054" H 1750 5000 50  0001 C CNN
F 1 "GND" H 1755 5077 50  0000 C CNN
F 2 "" H 1750 5250 50  0001 C CNN
F 3 "" H 1750 5250 50  0001 C CNN
	1    1750 5250
	1    0    0    -1  
$EndComp
Wire Wire Line
	1750 5250 1750 5150
Wire Wire Line
	3950 5800 3950 5600
$Comp
L Transistor_BJT:MPSA92 Q36
U 1 1 5CC3D212
P 3850 4950
AR Path="/5CB10040/5CC3D212" Ref="Q36"  Part="1" 
AR Path="/5CBC3935/5CC3D212" Ref="Q?"  Part="1" 
AR Path="/5CBC3C3E/5CC3D212" Ref="Q?"  Part="1" 
AR Path="/5CBC3F24/5CC3D212" Ref="Q?"  Part="1" 
F 0 "Q36" H 4041 4996 50  0000 L CNN
F 1 "MPSA92" H 4041 4905 50  0000 L CNN
F 2 "Package_TO_SOT_SMD:SOT-23_Handsoldering" H 4050 4875 50  0001 L CIN
F 3 "http://www.onsemi.com/pub_link/Collateral/MPSA92-D.PDF" H 3850 4950 50  0001 L CNN
	1    3850 4950
	1    0    0    -1  
$EndComp
$Comp
L Device:R R43
U 1 1 5CB18A00
P 3400 4950
AR Path="/5CB10040/5CB18A00" Ref="R43"  Part="1" 
AR Path="/5CBC3935/5CB18A00" Ref="R?"  Part="1" 
AR Path="/5CBC3C3E/5CB18A00" Ref="R?"  Part="1" 
AR Path="/5CBC3F24/5CB18A00" Ref="R?"  Part="1" 
F 0 "R43" V 3193 4950 50  0000 C CNN
F 1 "10k" V 3284 4950 50  0000 C CNN
F 2 "Resistor_SMD:R_0603_1608Metric" V 3330 4950 50  0001 C CNN
F 3 "~" H 3400 4950 50  0001 C CNN
	1    3400 4950
	0    1    1    0   
$EndComp
Wire Wire Line
	3550 4950 3650 4950
Wire Wire Line
	3950 4750 3950 4550
$Comp
L Transistor_BJT:MPSA92 Q35
U 1 1 5CC3D219
P 3850 3950
AR Path="/5CB10040/5CC3D219" Ref="Q35"  Part="1" 
AR Path="/5CBC3935/5CC3D219" Ref="Q?"  Part="1" 
AR Path="/5CBC3C3E/5CC3D219" Ref="Q?"  Part="1" 
AR Path="/5CBC3F24/5CC3D219" Ref="Q?"  Part="1" 
F 0 "Q35" H 4041 3996 50  0000 L CNN
F 1 "MPSA92" H 4041 3905 50  0000 L CNN
F 2 "Package_TO_SOT_SMD:SOT-23_Handsoldering" H 4050 3875 50  0001 L CIN
F 3 "http://www.onsemi.com/pub_link/Collateral/MPSA92-D.PDF" H 3850 3950 50  0001 L CNN
	1    3850 3950
	1    0    0    -1  
$EndComp
$Comp
L Device:R R42
U 1 1 5CC3D21C
P 3400 3950
AR Path="/5CB10040/5CC3D21C" Ref="R42"  Part="1" 
AR Path="/5CBC3935/5CC3D21C" Ref="R?"  Part="1" 
AR Path="/5CBC3C3E/5CC3D21C" Ref="R?"  Part="1" 
AR Path="/5CBC3F24/5CC3D21C" Ref="R?"  Part="1" 
F 0 "R42" V 3193 3950 50  0000 C CNN
F 1 "10k" V 3284 3950 50  0000 C CNN
F 2 "Resistor_SMD:R_0603_1608Metric" V 3330 3950 50  0001 C CNN
F 3 "~" H 3400 3950 50  0001 C CNN
	1    3400 3950
	0    1    1    0   
$EndComp
Wire Wire Line
	3550 3950 3650 3950
$Comp
L power:GND #PWR058
U 1 1 5CC3D220
P 3950 4300
AR Path="/5CB10040/5CC3D220" Ref="#PWR058"  Part="1" 
AR Path="/5CBC3935/5CC3D220" Ref="#PWR?"  Part="1" 
AR Path="/5CBC3C3E/5CC3D220" Ref="#PWR?"  Part="1" 
AR Path="/5CBC3F24/5CC3D220" Ref="#PWR?"  Part="1" 
F 0 "#PWR058" H 3950 4050 50  0001 C CNN
F 1 "GND" H 3955 4127 50  0000 C CNN
F 2 "" H 3950 4300 50  0001 C CNN
F 3 "" H 3950 4300 50  0001 C CNN
	1    3950 4300
	1    0    0    -1  
$EndComp
Wire Wire Line
	3950 4300 3950 4150
$Comp
L Transistor_BJT:MPSA92 Q38
U 1 1 5CC3D222
P 3850 7000
AR Path="/5CB10040/5CC3D222" Ref="Q38"  Part="1" 
AR Path="/5CBC3935/5CC3D222" Ref="Q?"  Part="1" 
AR Path="/5CBC3C3E/5CC3D222" Ref="Q?"  Part="1" 
AR Path="/5CBC3F24/5CC3D222" Ref="Q?"  Part="1" 
F 0 "Q38" H 4041 7046 50  0000 L CNN
F 1 "MPSA92" H 4041 6955 50  0000 L CNN
F 2 "Package_TO_SOT_SMD:SOT-23_Handsoldering" H 4050 6925 50  0001 L CIN
F 3 "http://www.onsemi.com/pub_link/Collateral/MPSA92-D.PDF" H 3850 7000 50  0001 L CNN
	1    3850 7000
	1    0    0    -1  
$EndComp
$Comp
L Device:R R45
U 1 1 5CC3D225
P 3400 7000
AR Path="/5CB10040/5CC3D225" Ref="R45"  Part="1" 
AR Path="/5CBC3935/5CC3D225" Ref="R?"  Part="1" 
AR Path="/5CBC3C3E/5CC3D225" Ref="R?"  Part="1" 
AR Path="/5CBC3F24/5CC3D225" Ref="R?"  Part="1" 
F 0 "R45" V 3193 7000 50  0000 C CNN
F 1 "10k" V 3284 7000 50  0000 C CNN
F 2 "Resistor_SMD:R_0603_1608Metric" V 3330 7000 50  0001 C CNN
F 3 "~" H 3400 7000 50  0001 C CNN
	1    3400 7000
	0    1    1    0   
$EndComp
Wire Wire Line
	3550 7000 3650 7000
$Comp
L power:GND #PWR061
U 1 1 5CC3D22A
P 3950 7350
AR Path="/5CB10040/5CC3D22A" Ref="#PWR061"  Part="1" 
AR Path="/5CBC3935/5CC3D22A" Ref="#PWR?"  Part="1" 
AR Path="/5CBC3C3E/5CC3D22A" Ref="#PWR?"  Part="1" 
AR Path="/5CBC3F24/5CC3D22A" Ref="#PWR?"  Part="1" 
F 0 "#PWR061" H 3950 7100 50  0001 C CNN
F 1 "GND" H 3955 7177 50  0000 C CNN
F 2 "" H 3950 7350 50  0001 C CNN
F 3 "" H 3950 7350 50  0001 C CNN
	1    3950 7350
	1    0    0    -1  
$EndComp
Wire Wire Line
	3950 7350 3950 7200
Wire Wire Line
	3950 6800 3950 6600
Wire Wire Line
	3950 5300 3950 5150
$Comp
L power:GND #PWR059
U 1 1 5CB18A07
P 3950 5300
AR Path="/5CB10040/5CB18A07" Ref="#PWR059"  Part="1" 
AR Path="/5CBC3935/5CB18A07" Ref="#PWR?"  Part="1" 
AR Path="/5CBC3C3E/5CB18A07" Ref="#PWR?"  Part="1" 
AR Path="/5CBC3F24/5CB18A07" Ref="#PWR?"  Part="1" 
F 0 "#PWR059" H 3950 5050 50  0001 C CNN
F 1 "GND" H 3955 5127 50  0000 C CNN
F 2 "" H 3950 5300 50  0001 C CNN
F 3 "" H 3950 5300 50  0001 C CNN
	1    3950 5300
	1    0    0    -1  
$EndComp
Wire Wire Line
	3250 4950 2600 4950
Wire Wire Line
	2600 4950 2600 4350
Wire Wire Line
	2550 4450 2550 6000
Wire Wire Line
	2550 6000 3250 6000
Wire Wire Line
	2500 4550 2500 7000
Wire Wire Line
	2500 7000 3250 7000
Wire Wire Line
	2600 4250 2600 3950
Wire Wire Line
	2600 3950 3250 3950
$Comp
L Transistor_BJT:MPSA92 Q33
U 1 1 5CC3D22B
P 3850 1950
AR Path="/5CB10040/5CC3D22B" Ref="Q33"  Part="1" 
AR Path="/5CBC3935/5CC3D22B" Ref="Q?"  Part="1" 
AR Path="/5CBC3C3E/5CC3D22B" Ref="Q?"  Part="1" 
AR Path="/5CBC3F24/5CC3D22B" Ref="Q?"  Part="1" 
F 0 "Q33" H 4041 1996 50  0000 L CNN
F 1 "MPSA92" H 4041 1905 50  0000 L CNN
F 2 "Package_TO_SOT_SMD:SOT-23_Handsoldering" H 4050 1875 50  0001 L CIN
F 3 "http://www.onsemi.com/pub_link/Collateral/MPSA92-D.PDF" H 3850 1950 50  0001 L CNN
	1    3850 1950
	1    0    0    -1  
$EndComp
$Comp
L Device:R R40
U 1 1 5CC3D230
P 3400 1950
AR Path="/5CB10040/5CC3D230" Ref="R40"  Part="1" 
AR Path="/5CBC3935/5CC3D230" Ref="R?"  Part="1" 
AR Path="/5CBC3C3E/5CC3D230" Ref="R?"  Part="1" 
AR Path="/5CBC3F24/5CC3D230" Ref="R?"  Part="1" 
F 0 "R40" V 3193 1950 50  0000 C CNN
F 1 "10k" V 3284 1950 50  0000 C CNN
F 2 "Resistor_SMD:R_0603_1608Metric" V 3330 1950 50  0001 C CNN
F 3 "~" H 3400 1950 50  0001 C CNN
	1    3400 1950
	0    1    1    0   
$EndComp
Wire Wire Line
	3550 1950 3650 1950
$Comp
L power:GND #PWR056
U 1 1 5CC3D231
P 3950 2300
AR Path="/5CB10040/5CC3D231" Ref="#PWR056"  Part="1" 
AR Path="/5CBC3935/5CC3D231" Ref="#PWR?"  Part="1" 
AR Path="/5CBC3C3E/5CC3D231" Ref="#PWR?"  Part="1" 
AR Path="/5CBC3F24/5CC3D231" Ref="#PWR?"  Part="1" 
F 0 "#PWR056" H 3950 2050 50  0001 C CNN
F 1 "GND" H 3955 2127 50  0000 C CNN
F 2 "" H 3950 2300 50  0001 C CNN
F 3 "" H 3950 2300 50  0001 C CNN
	1    3950 2300
	1    0    0    -1  
$EndComp
Wire Wire Line
	3950 2300 3950 2150
Wire Wire Line
	3950 1750 3950 1550
$Comp
L Transistor_BJT:MPSA92 Q32
U 1 1 5CB2D80D
P 3850 900
AR Path="/5CB10040/5CB2D80D" Ref="Q32"  Part="1" 
AR Path="/5CBC3935/5CB2D80D" Ref="Q?"  Part="1" 
AR Path="/5CBC3C3E/5CB2D80D" Ref="Q?"  Part="1" 
AR Path="/5CBC3F24/5CB2D80D" Ref="Q?"  Part="1" 
F 0 "Q32" H 4041 946 50  0000 L CNN
F 1 "MPSA92" H 4041 855 50  0000 L CNN
F 2 "Package_TO_SOT_SMD:SOT-23_Handsoldering" H 4050 825 50  0001 L CIN
F 3 "http://www.onsemi.com/pub_link/Collateral/MPSA92-D.PDF" H 3850 900 50  0001 L CNN
	1    3850 900 
	1    0    0    -1  
$EndComp
$Comp
L Device:R R39
U 1 1 5CC3D239
P 3400 900
AR Path="/5CB10040/5CC3D239" Ref="R39"  Part="1" 
AR Path="/5CBC3935/5CC3D239" Ref="R?"  Part="1" 
AR Path="/5CBC3C3E/5CC3D239" Ref="R?"  Part="1" 
AR Path="/5CBC3F24/5CC3D239" Ref="R?"  Part="1" 
F 0 "R39" V 3193 900 50  0000 C CNN
F 1 "10k" V 3284 900 50  0000 C CNN
F 2 "Resistor_SMD:R_0603_1608Metric" V 3330 900 50  0001 C CNN
F 3 "~" H 3400 900 50  0001 C CNN
	1    3400 900 
	0    1    1    0   
$EndComp
Wire Wire Line
	3550 900  3650 900 
Wire Wire Line
	3950 700  3950 650 
$Comp
L Transistor_BJT:MPSA92 Q34
U 1 1 5CC3D23C
P 3850 2950
AR Path="/5CB10040/5CC3D23C" Ref="Q34"  Part="1" 
AR Path="/5CBC3935/5CC3D23C" Ref="Q?"  Part="1" 
AR Path="/5CBC3C3E/5CC3D23C" Ref="Q?"  Part="1" 
AR Path="/5CBC3F24/5CC3D23C" Ref="Q?"  Part="1" 
F 0 "Q34" H 4041 2996 50  0000 L CNN
F 1 "MPSA92" H 4041 2905 50  0000 L CNN
F 2 "Package_TO_SOT_SMD:SOT-23_Handsoldering" H 4050 2875 50  0001 L CIN
F 3 "http://www.onsemi.com/pub_link/Collateral/MPSA92-D.PDF" H 3850 2950 50  0001 L CNN
	1    3850 2950
	1    0    0    -1  
$EndComp
$Comp
L Device:R R41
U 1 1 5CC3D23E
P 3400 2950
AR Path="/5CB10040/5CC3D23E" Ref="R41"  Part="1" 
AR Path="/5CBC3935/5CC3D23E" Ref="R?"  Part="1" 
AR Path="/5CBC3C3E/5CC3D23E" Ref="R?"  Part="1" 
AR Path="/5CBC3F24/5CC3D23E" Ref="R?"  Part="1" 
F 0 "R41" V 3193 2950 50  0000 C CNN
F 1 "10k" V 3284 2950 50  0000 C CNN
F 2 "Resistor_SMD:R_0603_1608Metric" V 3330 2950 50  0001 C CNN
F 3 "~" H 3400 2950 50  0001 C CNN
	1    3400 2950
	0    1    1    0   
$EndComp
Wire Wire Line
	3550 2950 3650 2950
$Comp
L power:GND #PWR057
U 1 1 5CC3D240
P 3950 3300
AR Path="/5CB10040/5CC3D240" Ref="#PWR057"  Part="1" 
AR Path="/5CBC3935/5CC3D240" Ref="#PWR?"  Part="1" 
AR Path="/5CBC3C3E/5CC3D240" Ref="#PWR?"  Part="1" 
AR Path="/5CBC3F24/5CC3D240" Ref="#PWR?"  Part="1" 
F 0 "#PWR057" H 3950 3050 50  0001 C CNN
F 1 "GND" H 3955 3127 50  0000 C CNN
F 2 "" H 3950 3300 50  0001 C CNN
F 3 "" H 3950 3300 50  0001 C CNN
	1    3950 3300
	1    0    0    -1  
$EndComp
Wire Wire Line
	3950 3300 3950 3150
Wire Wire Line
	3950 2750 3950 2550
Wire Wire Line
	3950 1250 3950 1100
$Comp
L power:GND #PWR055
U 1 1 5CC3D245
P 3950 1250
AR Path="/5CB10040/5CC3D245" Ref="#PWR055"  Part="1" 
AR Path="/5CBC3935/5CC3D245" Ref="#PWR?"  Part="1" 
AR Path="/5CBC3C3E/5CC3D245" Ref="#PWR?"  Part="1" 
AR Path="/5CBC3F24/5CC3D245" Ref="#PWR?"  Part="1" 
F 0 "#PWR055" H 3950 1000 50  0001 C CNN
F 1 "GND" H 3955 1077 50  0000 C CNN
F 2 "" H 3950 1250 50  0001 C CNN
F 3 "" H 3950 1250 50  0001 C CNN
	1    3950 1250
	1    0    0    -1  
$EndComp
Wire Wire Line
	2550 4150 2550 2950
Wire Wire Line
	2550 2950 3250 2950
Wire Wire Line
	2500 1950 3250 1950
Wire Wire Line
	2500 1950 2500 4050
Wire Wire Line
	2450 3950 2450 900 
Wire Wire Line
	2450 900  3250 900 
$Comp
L Transistor_BJT:MPSA92 Q40
U 1 1 5CC3D247
P 3900 8950
AR Path="/5CB10040/5CC3D247" Ref="Q40"  Part="1" 
AR Path="/5CBC3935/5CC3D247" Ref="Q?"  Part="1" 
AR Path="/5CBC3C3E/5CC3D247" Ref="Q?"  Part="1" 
AR Path="/5CBC3F24/5CC3D247" Ref="Q?"  Part="1" 
F 0 "Q40" H 4091 8996 50  0000 L CNN
F 1 "MPSA92" H 4091 8905 50  0000 L CNN
F 2 "Package_TO_SOT_SMD:SOT-23_Handsoldering" H 4100 8875 50  0001 L CIN
F 3 "http://www.onsemi.com/pub_link/Collateral/MPSA92-D.PDF" H 3900 8950 50  0001 L CNN
	1    3900 8950
	1    0    0    -1  
$EndComp
$Comp
L Device:R R47
U 1 1 5CB35FA5
P 3450 8950
AR Path="/5CB10040/5CB35FA5" Ref="R47"  Part="1" 
AR Path="/5CBC3935/5CB35FA5" Ref="R?"  Part="1" 
AR Path="/5CBC3C3E/5CB35FA5" Ref="R?"  Part="1" 
AR Path="/5CBC3F24/5CB35FA5" Ref="R?"  Part="1" 
F 0 "R47" V 3243 8950 50  0000 C CNN
F 1 "10k" V 3334 8950 50  0000 C CNN
F 2 "Resistor_SMD:R_0603_1608Metric" V 3380 8950 50  0001 C CNN
F 3 "~" H 3450 8950 50  0001 C CNN
	1    3450 8950
	0    1    1    0   
$EndComp
Wire Wire Line
	3600 8950 3700 8950
$Comp
L power:GND #PWR063
U 1 1 5CB35FAC
P 4000 9300
AR Path="/5CB10040/5CB35FAC" Ref="#PWR063"  Part="1" 
AR Path="/5CBC3935/5CB35FAC" Ref="#PWR?"  Part="1" 
AR Path="/5CBC3C3E/5CB35FAC" Ref="#PWR?"  Part="1" 
AR Path="/5CBC3F24/5CB35FAC" Ref="#PWR?"  Part="1" 
F 0 "#PWR063" H 4000 9050 50  0001 C CNN
F 1 "GND" H 4005 9127 50  0000 C CNN
F 2 "" H 4000 9300 50  0001 C CNN
F 3 "" H 4000 9300 50  0001 C CNN
	1    4000 9300
	1    0    0    -1  
$EndComp
Wire Wire Line
	4000 9300 4000 9150
Wire Wire Line
	4000 8750 4000 8550
$Comp
L Transistor_BJT:MPSA92 Q39
U 1 1 5CB35FB4
P 3900 7900
AR Path="/5CB10040/5CB35FB4" Ref="Q39"  Part="1" 
AR Path="/5CBC3935/5CB35FB4" Ref="Q?"  Part="1" 
AR Path="/5CBC3C3E/5CB35FB4" Ref="Q?"  Part="1" 
AR Path="/5CBC3F24/5CB35FB4" Ref="Q?"  Part="1" 
F 0 "Q39" H 4091 7946 50  0000 L CNN
F 1 "MPSA92" H 4091 7855 50  0000 L CNN
F 2 "Package_TO_SOT_SMD:SOT-23_Handsoldering" H 4100 7825 50  0001 L CIN
F 3 "http://www.onsemi.com/pub_link/Collateral/MPSA92-D.PDF" H 3900 7900 50  0001 L CNN
	1    3900 7900
	1    0    0    -1  
$EndComp
$Comp
L Device:R R46
U 1 1 5CC3D254
P 3450 7900
AR Path="/5CB10040/5CC3D254" Ref="R46"  Part="1" 
AR Path="/5CBC3935/5CC3D254" Ref="R?"  Part="1" 
AR Path="/5CBC3C3E/5CC3D254" Ref="R?"  Part="1" 
AR Path="/5CBC3F24/5CC3D254" Ref="R?"  Part="1" 
F 0 "R46" V 3243 7900 50  0000 C CNN
F 1 "10k" V 3334 7900 50  0000 C CNN
F 2 "Resistor_SMD:R_0603_1608Metric" V 3380 7900 50  0001 C CNN
F 3 "~" H 3450 7900 50  0001 C CNN
	1    3450 7900
	0    1    1    0   
$EndComp
Wire Wire Line
	3600 7900 3700 7900
$Comp
L Transistor_BJT:MPSA92 Q41
U 1 1 5CC3D255
P 3900 9950
AR Path="/5CB10040/5CC3D255" Ref="Q41"  Part="1" 
AR Path="/5CBC3935/5CC3D255" Ref="Q?"  Part="1" 
AR Path="/5CBC3C3E/5CC3D255" Ref="Q?"  Part="1" 
AR Path="/5CBC3F24/5CC3D255" Ref="Q?"  Part="1" 
F 0 "Q41" H 4091 9996 50  0000 L CNN
F 1 "MPSA92" H 4091 9905 50  0000 L CNN
F 2 "Package_TO_SOT_SMD:SOT-23_Handsoldering" H 4100 9875 50  0001 L CIN
F 3 "http://www.onsemi.com/pub_link/Collateral/MPSA92-D.PDF" H 3900 9950 50  0001 L CNN
	1    3900 9950
	1    0    0    -1  
$EndComp
$Comp
L Device:R R48
U 1 1 5CC3D258
P 3450 9950
AR Path="/5CB10040/5CC3D258" Ref="R48"  Part="1" 
AR Path="/5CBC3935/5CC3D258" Ref="R?"  Part="1" 
AR Path="/5CBC3C3E/5CC3D258" Ref="R?"  Part="1" 
AR Path="/5CBC3F24/5CC3D258" Ref="R?"  Part="1" 
F 0 "R48" V 3243 9950 50  0000 C CNN
F 1 "10k" V 3334 9950 50  0000 C CNN
F 2 "Resistor_SMD:R_0603_1608Metric" V 3380 9950 50  0001 C CNN
F 3 "~" H 3450 9950 50  0001 C CNN
	1    3450 9950
	0    1    1    0   
$EndComp
Wire Wire Line
	3600 9950 3700 9950
$Comp
L power:GND #PWR064
U 1 1 5CC3D25B
P 4000 10300
AR Path="/5CB10040/5CC3D25B" Ref="#PWR064"  Part="1" 
AR Path="/5CBC3935/5CC3D25B" Ref="#PWR?"  Part="1" 
AR Path="/5CBC3C3E/5CC3D25B" Ref="#PWR?"  Part="1" 
AR Path="/5CBC3F24/5CC3D25B" Ref="#PWR?"  Part="1" 
F 0 "#PWR064" H 4000 10050 50  0001 C CNN
F 1 "GND" H 4005 10127 50  0000 C CNN
F 2 "" H 4000 10300 50  0001 C CNN
F 3 "" H 4000 10300 50  0001 C CNN
	1    4000 10300
	1    0    0    -1  
$EndComp
Wire Wire Line
	4000 10300 4000 10150
Wire Wire Line
	4000 9750 4000 9550
Wire Wire Line
	4000 8250 4000 8100
$Comp
L power:GND #PWR062
U 1 1 5CC3D260
P 4000 8250
AR Path="/5CB10040/5CC3D260" Ref="#PWR062"  Part="1" 
AR Path="/5CBC3935/5CC3D260" Ref="#PWR?"  Part="1" 
AR Path="/5CBC3C3E/5CC3D260" Ref="#PWR?"  Part="1" 
AR Path="/5CBC3F24/5CC3D260" Ref="#PWR?"  Part="1" 
F 0 "#PWR062" H 4000 8000 50  0001 C CNN
F 1 "GND" H 4005 8077 50  0000 C CNN
F 2 "" H 4000 8250 50  0001 C CNN
F 3 "" H 4000 8250 50  0001 C CNN
	1    4000 8250
	1    0    0    -1  
$EndComp
Wire Wire Line
	2250 3950 2450 3950
Wire Wire Line
	2250 4050 2500 4050
Wire Wire Line
	2250 4150 2550 4150
Wire Wire Line
	2250 4250 2600 4250
Wire Wire Line
	2250 4350 2600 4350
Wire Wire Line
	2250 4450 2550 4450
Wire Wire Line
	2250 4550 2500 4550
Wire Wire Line
	2250 4650 2450 4650
Wire Wire Line
	2450 7900 3300 7900
Wire Wire Line
	2450 4650 2450 7900
Wire Wire Line
	2250 4750 2400 4750
Wire Wire Line
	2400 4750 2400 8950
Wire Wire Line
	2400 8950 3300 8950
Wire Wire Line
	2350 9950 2350 4850
Wire Wire Line
	2350 4850 2250 4850
Wire Wire Line
	2350 9950 3300 9950
Text HLabel 1750 3300 1    50   Input ~ 0
3V3
Wire Wire Line
	1750 3300 1750 3350
Text HLabel 1100 4150 0    50   Input ~ 0
A1
Text HLabel 1100 4250 0    50   Input ~ 0
B1
Text HLabel 1100 4350 0    50   Input ~ 0
C1
Text HLabel 1100 4450 0    50   Input ~ 0
D1
Wire Wire Line
	1100 4450 1250 4450
Wire Wire Line
	1250 4350 1100 4350
Wire Wire Line
	1100 4250 1250 4250
Wire Wire Line
	1250 4150 1100 4150
$Comp
L ni12_clock-rescue:IN-12A-russian-nixies-ni12_zegar-rescue N4
U 1 1 5CC3D262
P 6100 3250
AR Path="/5CB10040/5CC3D262" Ref="N4"  Part="1" 
AR Path="/5CBC3935/5CC3D262" Ref="N?"  Part="1" 
AR Path="/5CBC3C3E/5CC3D262" Ref="N?"  Part="1" 
AR Path="/5CBC3F24/5CC3D262" Ref="N?"  Part="1" 
AR Path="/5CC3D262" Ref="N4"  Part="1" 
F 0 "N4" H 6050 4190 50  0000 C CNN
F 1 "IN-12A" H 6050 4099 50  0000 C CNN
F 2 "MY_LIBRARY:russian-nixies-IN-12" H 6100 3400 50  0001 C CNN
F 3 "" H 6100 3250 50  0001 C CNN
	1    6100 3250
	1    0    0    -1  
$EndComp
Wire Wire Line
	4000 9550 5400 9550
Wire Wire Line
	5400 9550 5400 3650
Wire Wire Line
	4000 8550 5200 8550
Wire Wire Line
	5200 8550 5200 3550
Wire Wire Line
	4950 3450 4950 7700
Wire Wire Line
	4950 7700 4000 7700
Wire Wire Line
	3950 6600 4850 6600
Wire Wire Line
	4850 6600 4850 3350
Wire Wire Line
	4650 3250 4650 5600
Wire Wire Line
	4650 5600 3950 5600
Wire Wire Line
	3950 4550 4500 4550
Wire Wire Line
	4500 4550 4500 3150
Wire Wire Line
	3950 3500 3950 3750
Wire Wire Line
	4150 3050 4150 3500
Wire Wire Line
	4150 3500 3950 3500
Wire Wire Line
	3950 2550 4250 2550
Wire Wire Line
	4250 2550 4250 2950
Wire Wire Line
	4500 2850 4500 1550
Wire Wire Line
	4500 1550 3950 1550
Wire Wire Line
	3950 650  4800 650 
Wire Wire Line
	4800 650  4800 2750
Text HLabel 7300 3250 2    50   Input ~ 0
200V
Wire Wire Line
	6500 3250 6750 3250
Wire Wire Line
	7300 3250 7150 3250
$Comp
L Device:R R?
U 1 1 5CCA94A2
P 6950 3450
AR Path="/5CBC3935/5CCA94A2" Ref="R?"  Part="1" 
AR Path="/5CB10040/5CCA94A2" Ref="R52"  Part="1" 
F 0 "R52" V 7157 3450 50  0000 C CNN
F 1 "30k" V 7066 3450 50  0000 C CNN
F 2 "Resistor_THT:R_Axial_DIN0411_L9.9mm_D3.6mm_P15.24mm_Horizontal" V 6880 3450 50  0001 C CNN
F 3 "~" H 6950 3450 50  0001 C CNN
	1    6950 3450
	0    -1   -1   0   
$EndComp
$Comp
L Device:R R?
U 1 1 5CCB9162
P 6950 3150
AR Path="/5CBC3935/5CCB9162" Ref="R?"  Part="1" 
AR Path="/5CB10040/5CCB9162" Ref="R56"  Part="1" 
F 0 "R56" V 6743 3150 50  0000 C CNN
F 1 "30k" V 6834 3150 50  0000 C CNN
F 2 "Resistor_THT:R_Axial_DIN0411_L9.9mm_D3.6mm_P15.24mm_Horizontal" V 6880 3150 50  0001 C CNN
F 3 "~" H 6950 3150 50  0001 C CNN
	1    6950 3150
	0    1    1    0   
$EndComp
Wire Wire Line
	6800 3150 6750 3150
Wire Wire Line
	6750 3150 6750 3250
Connection ~ 6750 3250
Wire Wire Line
	7100 3150 7150 3150
Wire Wire Line
	7150 3150 7150 3250
Connection ~ 7150 3250
Wire Wire Line
	6750 3250 6750 3450
Wire Wire Line
	6750 3450 6800 3450
Wire Wire Line
	7100 3450 7150 3450
Wire Wire Line
	7150 3450 7150 3250
Connection ~ 5400 9550
Wire Wire Line
	5400 9550 5600 9550
Wire Wire Line
	5400 3650 5600 3650
Wire Wire Line
	4800 2750 5600 2750
Wire Wire Line
	4500 2850 5600 2850
Wire Wire Line
	4250 2950 5600 2950
Wire Wire Line
	4150 3050 5600 3050
Wire Wire Line
	4500 3150 5600 3150
Wire Wire Line
	4650 3250 5600 3250
Wire Wire Line
	4850 3350 5600 3350
Wire Wire Line
	4950 3450 5600 3450
Wire Wire Line
	5200 3550 5600 3550
$Comp
L Device:C C20
U 1 1 5DCACE6A
P 1200 3500
F 0 "C20" H 1315 3546 50  0000 L CNN
F 1 "100nF" H 1315 3455 50  0000 L CNN
F 2 "Capacitor_SMD:C_0603_1608Metric" H 1238 3350 50  0001 C CNN
F 3 "~" H 1200 3500 50  0001 C CNN
	1    1200 3500
	1    0    0    -1  
$EndComp
$Comp
L power:GND #PWR0106
U 1 1 5DCAD088
P 1200 3650
AR Path="/5CB10040/5DCAD088" Ref="#PWR0106"  Part="1" 
AR Path="/5CBC3935/5DCAD088" Ref="#PWR?"  Part="1" 
AR Path="/5CBC3C3E/5DCAD088" Ref="#PWR?"  Part="1" 
AR Path="/5CBC3F24/5DCAD088" Ref="#PWR?"  Part="1" 
F 0 "#PWR0106" H 1200 3400 50  0001 C CNN
F 1 "GND" H 1205 3477 50  0000 C CNN
F 2 "" H 1200 3650 50  0001 C CNN
F 3 "" H 1200 3650 50  0001 C CNN
	1    1200 3650
	1    0    0    -1  
$EndComp
Wire Wire Line
	1200 3350 1750 3350
Connection ~ 1750 3350
Wire Wire Line
	1750 3350 1750 3650
$EndSCHEMATC
