EESchema Schematic File Version 4
LIBS:ni12_clock-cache
EELAYER 26 0
EELAYER END
$Descr A4 11693 8268
encoding utf-8
Sheet 1 10
Title ""
Date ""
Rev ""
Comp ""
Comment1 ""
Comment2 ""
Comment3 ""
Comment4 ""
$EndDescr
$Sheet
S 3400 1900 900  500 
U 5CB09374
F0 "psuHV" 50
F1 "psu_max1771.sch" 50
F2 "200V" O R 4300 2150 50 
F3 "12V" I L 3400 2150 50 
$EndSheet
Wire Wire Line
	3400 2150 3250 2150
$Sheet
S 3400 2600 900  300 
U 5CB8231C
F0 "5V" 50
F1 "psu5V.sch" 50
F2 "12V" I L 3400 2750 50 
F3 "3V3" O R 4300 2750 50 
$EndSheet
Wire Wire Line
	4850 2300 5250 2300
$Sheet
S 1200 2350 1000 400 
U 5CBB1E8B
F0 "con_esd" 50
F1 "conectors&protection.sch" 50
F2 "12V" O R 2200 2550 50 
$EndSheet
Wire Wire Line
	2200 2550 3250 2550
Connection ~ 3250 2550
Wire Wire Line
	3250 2550 3250 2150
$Sheet
S 5250 2700 1050 550 
U 5CBC3935
F0 "GODZINY" 50
F1 "in12B.sch" 50
F2 "200V" I L 5250 2900 50 
F3 "A2" I R 6300 2850 50 
F4 "B2" I R 6300 2950 50 
F5 "C2" I R 6300 3050 50 
F6 "D2" I R 6300 3150 50 
F7 "3V3" I L 5250 3050 50 
$EndSheet
$Sheet
S 5250 3400 1050 550 
U 5CBC3C3E
F0 "DZISIATKI MINUT" 50
F1 "in12C.sch" 50
F2 "200V" I L 5250 3600 50 
F3 "A3" I R 6300 3550 50 
F4 "B3" I R 6300 3650 50 
F5 "C3" I R 6300 3750 50 
F6 "D3" I R 6300 3850 50 
F7 "3V3" I L 5250 3750 50 
$EndSheet
$Sheet
S 5250 4200 1050 500 
U 5CBC3F24
F0 "MINUTY" 50
F1 "in12D.sch" 50
F2 "200V" I L 5250 4400 50 
F3 "A4" I R 6300 4300 50 
F4 "B4" I R 6300 4400 50 
F5 "C4" I R 6300 4500 50 
F6 "D4" I R 6300 4600 50 
F7 "3V3" I L 5250 4550 50 
$EndSheet
Wire Wire Line
	3250 2550 3250 2750
Wire Wire Line
	4550 2150 5250 2150
$Sheet
S 5250 1950 1050 550 
U 5CB10040
F0 "DZIESIATKI GODZIN" 50
F1 "in12A.sch" 50
F2 "200V" I L 5250 2150 50 
F3 "A1" I R 6300 2100 50 
F4 "B1" I R 6300 2200 50 
F5 "C1" I R 6300 2300 50 
F6 "D1" I R 6300 2400 50 
F7 "3V3" I L 5250 2300 50 
$EndSheet
Wire Wire Line
	5250 2900 4550 2900
Wire Wire Line
	5250 3600 4550 3600
Connection ~ 4550 3600
Wire Wire Line
	4550 3600 4550 4400
Wire Wire Line
	5250 4400 4550 4400
Wire Wire Line
	5250 3050 4850 3050
Wire Wire Line
	5250 3750 4850 3750
Connection ~ 4850 3750
Wire Wire Line
	4850 3750 4850 4550
Wire Wire Line
	5250 4550 4850 4550
Wire Wire Line
	3400 2750 3250 2750
Wire Wire Line
	4850 2300 4850 2750
Wire Wire Line
	4550 2150 4400 2150
Connection ~ 4550 2150
Wire Wire Line
	4300 2750 4850 2750
Connection ~ 4850 2750
Text Label 8700 4300 0    50   ~ 0
SCL
Text Label 8700 4400 0    50   ~ 0
SDA
Wire Wire Line
	10300 4300 10600 4300
Text Label 4850 1700 0    50   ~ 0
3V3
Wire Wire Line
	4850 2300 4850 1700
Connection ~ 4850 2300
Wire Wire Line
	4550 2900 4550 3600
Connection ~ 4850 3050
Wire Wire Line
	4850 3050 4850 3750
Wire Wire Line
	4850 2750 4850 3050
$Comp
L Device:C C1
U 1 1 5CC24A20
P 8150 1850
F 0 "C1" H 8265 1896 50  0000 L CNN
F 1 "100n" H 8265 1805 50  0000 L CNN
F 2 "Capacitor_SMD:C_0603_1608Metric" H 8188 1700 50  0001 C CNN
F 3 "~" H 8150 1850 50  0001 C CNN
	1    8150 1850
	1    0    0    -1  
$EndComp
$Comp
L Device:C C2
U 1 1 5CB103AC
P 7650 1850
F 0 "C2" H 7765 1896 50  0000 L CNN
F 1 "100n" H 7765 1805 50  0000 L CNN
F 2 "Capacitor_SMD:C_0603_1608Metric" H 7688 1700 50  0001 C CNN
F 3 "~" H 7650 1850 50  0001 C CNN
	1    7650 1850
	1    0    0    -1  
$EndComp
Wire Wire Line
	10600 4000 10300 4000
Wire Wire Line
	10600 3900 10300 3900
Wire Wire Line
	10600 4100 10300 4100
Wire Wire Line
	10600 4200 10300 4200
Wire Wire Line
	6300 2100 6600 2100
Wire Wire Line
	6300 2200 6600 2200
Wire Wire Line
	6600 2300 6300 2300
Wire Wire Line
	6300 2400 6600 2400
Text Label 6600 2100 0    50   ~ 0
A1
Text Label 6600 2200 0    50   ~ 0
B1
Text Label 6600 2300 0    50   ~ 0
C1
Text Label 6600 2400 0    50   ~ 0
D1
Text Label 10600 3900 0    50   ~ 0
B1
Text Label 10600 4000 0    50   ~ 0
C1
Text Label 10600 4200 0    50   ~ 0
A1
Text Label 10600 4100 0    50   ~ 0
D1
Wire Wire Line
	6300 2850 6600 2850
Wire Wire Line
	6300 2950 6600 2950
Wire Wire Line
	6600 3050 6300 3050
Wire Wire Line
	6300 3150 6600 3150
Text Label 6600 2850 0    50   ~ 0
A2
Text Label 6600 2950 0    50   ~ 0
B2
Text Label 6600 3050 0    50   ~ 0
C2
Text Label 6600 3150 0    50   ~ 0
D2
Wire Wire Line
	10600 4400 10300 4400
Wire Wire Line
	9000 3700 8700 3700
Wire Wire Line
	9000 3800 8700 3800
Wire Wire Line
	9000 3900 8700 3900
Text Label 8700 3700 0    50   ~ 0
C2
Text Label 10600 4400 0    50   ~ 0
B2
Text Label 8700 3900 0    50   ~ 0
A2
Text Label 8700 3800 0    50   ~ 0
D2
Wire Wire Line
	9000 4700 8700 4700
Wire Wire Line
	9000 4800 8700 4800
Wire Wire Line
	9000 4900 8700 4900
Wire Wire Line
	9000 5000 8700 5000
Text Label 8700 4800 0    50   ~ 0
C3
Text Label 8700 4700 0    50   ~ 0
B3
Text Label 8700 5000 0    50   ~ 0
A3
Text Label 8700 4900 0    50   ~ 0
D3
Wire Wire Line
	6300 3850 6600 3850
Wire Wire Line
	6300 3750 6600 3750
Wire Wire Line
	6300 3650 6600 3650
Wire Wire Line
	6300 3550 6600 3550
Text Label 6600 3750 2    50   ~ 0
C3
Text Label 6600 3850 2    50   ~ 0
D3
Text Label 6600 3550 2    50   ~ 0
A3
Text Label 6600 3650 2    50   ~ 0
B3
Wire Wire Line
	6300 4300 6600 4300
Text Label 6600 4300 2    50   ~ 0
A4
Wire Wire Line
	6300 4600 6600 4600
Wire Wire Line
	6300 4500 6600 4500
Text Label 6600 4500 2    50   ~ 0
C4
Text Label 6600 4600 2    50   ~ 0
D4
Text Label 6600 4400 2    50   ~ 0
B4
Wire Wire Line
	6300 4400 6600 4400
Wire Wire Line
	10600 4700 10300 4700
Text Label 10600 4700 0    50   ~ 0
A4
Text Label 8700 5200 0    50   ~ 0
B4
Wire Wire Line
	9000 5200 8700 5200
Wire Wire Line
	10300 4600 10600 4600
Text Label 10600 4600 0    50   ~ 0
D4
Text Label 10600 4500 0    50   ~ 0
C4
Wire Wire Line
	10300 4500 10600 4500
$Comp
L Connector:TestPoint TP1
U 1 1 5CBBD48A
P 4550 2150
F 0 "TP1" H 4500 2350 50  0000 L CNN
F 1 "TestPoint" V 4600 1750 50  0000 L CNN
F 2 "TestPoint:TestPoint_THTPad_1.5x1.5mm_Drill0.7mm" H 4750 2150 50  0001 C CNN
F 3 "~" H 4750 2150 50  0001 C CNN
	1    4550 2150
	1    0    0    -1  
$EndComp
$Sheet
S 5250 4900 750  250 
U 5CB3C0D6
F0 "Sheet5CB3C0D5" 50
F1 "neon_bulbs.sch" 50
F2 "200V" I L 5250 5000 50 
F3 "neon_lamps" I R 6000 5050 50 
$EndSheet
$Sheet
S 5250 5500 1150 650 
U 5CB87CF2
F0 "rtc" 50
F1 "rtc_temp_switch.sch" 50
F2 "SDA" B R 6400 5900 50 
F3 "MPF" B R 6400 6000 50 
F4 "SCL" B R 6400 5750 50 
F5 "SW1" O R 6400 5550 50 
F6 "SW2" O R 6400 5650 50 
F7 "temp" O R 6400 6100 50 
F8 "3V3" I L 5250 5750 50 
$EndSheet
Wire Wire Line
	5250 5750 4850 5750
Wire Wire Line
	6400 5900 6600 5900
Wire Wire Line
	6600 5750 6400 5750
Text Label 6600 5900 0    50   ~ 0
SDA
Text Label 6600 5750 0    50   ~ 0
SCL
Wire Wire Line
	4550 4400 4550 5000
Connection ~ 4550 4400
Wire Wire Line
	4550 5000 5250 5000
Wire Wire Line
	4850 4550 4850 5750
Connection ~ 4850 4550
Text Label 2750 2550 0    50   ~ 0
12V
Text Label 6350 5050 2    50   ~ 0
neon
Text Label 10600 3800 0    50   ~ 0
neon
Wire Wire Line
	6000 5050 6350 5050
Wire Wire Line
	10300 3700 10600 3700
Wire Wire Line
	8700 5100 9000 5100
Wire Wire Line
	10300 3800 10600 3800
Text Label 8700 5100 0    50   ~ 0
sw2
Text Label 10600 4300 0    50   ~ 0
sw1
Text Label 10600 3700 0    50   ~ 0
temp
Wire Wire Line
	6400 6100 6600 6100
Wire Wire Line
	6400 5650 6600 5650
Wire Wire Line
	6400 5550 6600 5550
Text Label 6600 6100 0    50   ~ 0
temp
Text Label 6600 5650 0    50   ~ 0
sw2
Text Label 6600 5550 0    50   ~ 0
sw1
Wire Wire Line
	3250 2750 3250 5850
Wire Wire Line
	3250 5850 5250 5850
Connection ~ 3250 2750
$Comp
L power:GND #PWR01
U 1 1 5DC25871
P 7650 2000
F 0 "#PWR01" H 7650 1750 50  0001 C CNN
F 1 "GND" H 7655 1827 50  0000 C CNN
F 2 "" H 7650 2000 50  0001 C CNN
F 3 "" H 7650 2000 50  0001 C CNN
	1    7650 2000
	1    0    0    -1  
$EndComp
$Comp
L power:GND #PWR02
U 1 1 5DC2588A
P 8150 2000
F 0 "#PWR02" H 8150 1750 50  0001 C CNN
F 1 "GND" H 8155 1827 50  0000 C CNN
F 2 "" H 8150 2000 50  0001 C CNN
F 3 "" H 8150 2000 50  0001 C CNN
	1    8150 2000
	1    0    0    -1  
$EndComp
$Comp
L Device:C C14
U 1 1 5DC25959
P 8600 1850
F 0 "C14" H 8715 1896 50  0000 L CNN
F 1 "100n" H 8715 1805 50  0000 L CNN
F 2 "Capacitor_SMD:C_0603_1608Metric" H 8638 1700 50  0001 C CNN
F 3 "~" H 8600 1850 50  0001 C CNN
	1    8600 1850
	1    0    0    -1  
$EndComp
$Comp
L power:GND #PWR067
U 1 1 5DC2D517
P 9500 5600
F 0 "#PWR067" H 9500 5350 50  0001 C CNN
F 1 "GND" H 9505 5427 50  0000 C CNN
F 2 "" H 9500 5600 50  0001 C CNN
F 3 "" H 9500 5600 50  0001 C CNN
	1    9500 5600
	1    0    0    -1  
$EndComp
Wire Wire Line
	4850 1700 7150 1700
Connection ~ 7650 1700
Wire Wire Line
	7650 1700 8150 1700
Connection ~ 8150 1700
$Comp
L MCU_ST_STM32F1:STM32F103CBTx U1
U 1 1 5DEE7CC0
P 9700 3900
F 0 "U1" H 9150 5350 50  0000 C CNN
F 1 "STM32F103CBTx" V 10250 5000 50  0000 C CNN
F 2 "Package_QFP:LQFP-48_7x7mm_P0.5mm" H 9100 2500 50  0001 R CNN
F 3 "http://www.st.com/st-web-ui/static/active/en/resource/technical/document/datasheet/CD00161566.pdf" H 9700 3900 50  0001 C CNN
	1    9700 3900
	1    0    0    -1  
$EndComp
$Comp
L Device:C C15
U 1 1 5DEEC304
P 7150 1850
F 0 "C15" H 7265 1896 50  0000 L CNN
F 1 "100n" H 7265 1805 50  0000 L CNN
F 2 "Capacitor_SMD:C_0603_1608Metric" H 7188 1700 50  0001 C CNN
F 3 "~" H 7150 1850 50  0001 C CNN
	1    7150 1850
	1    0    0    -1  
$EndComp
Connection ~ 7150 1700
Wire Wire Line
	7150 1700 7650 1700
Wire Wire Line
	8150 1700 8600 1700
Connection ~ 8600 1700
$Comp
L Device:C C22
U 1 1 5DEEC3F5
P 9100 1850
F 0 "C22" H 9215 1896 50  0000 L CNN
F 1 "100n" H 9215 1805 50  0000 L CNN
F 2 "Capacitor_SMD:C_0603_1608Metric" H 9138 1700 50  0001 C CNN
F 3 "~" H 9100 1850 50  0001 C CNN
	1    9100 1850
	1    0    0    -1  
$EndComp
$Comp
L Device:C C21
U 1 1 5DEEC448
P 7950 2750
F 0 "C21" H 8065 2796 50  0000 L CNN
F 1 "100n" H 8065 2705 50  0000 L CNN
F 2 "Capacitor_SMD:C_0603_1608Metric" H 7988 2600 50  0001 C CNN
F 3 "~" H 7950 2750 50  0001 C CNN
	1    7950 2750
	1    0    0    -1  
$EndComp
$Comp
L power:GND #PWR068
U 1 1 5DEEC48C
P 7150 2000
F 0 "#PWR068" H 7150 1750 50  0001 C CNN
F 1 "GND" H 7155 1827 50  0000 C CNN
F 2 "" H 7150 2000 50  0001 C CNN
F 3 "" H 7150 2000 50  0001 C CNN
	1    7150 2000
	1    0    0    -1  
$EndComp
$Comp
L power:GND #PWR072
U 1 1 5DEEC4A7
P 8600 2000
F 0 "#PWR072" H 8600 1750 50  0001 C CNN
F 1 "GND" H 8605 1827 50  0000 C CNN
F 2 "" H 8600 2000 50  0001 C CNN
F 3 "" H 8600 2000 50  0001 C CNN
	1    8600 2000
	1    0    0    -1  
$EndComp
$Comp
L power:GND #PWR074
U 1 1 5DEEC4C2
P 9100 2000
F 0 "#PWR074" H 9100 1750 50  0001 C CNN
F 1 "GND" H 9105 1827 50  0000 C CNN
F 2 "" H 9100 2000 50  0001 C CNN
F 3 "" H 9100 2000 50  0001 C CNN
	1    9100 2000
	1    0    0    -1  
$EndComp
Wire Wire Line
	9500 1700 9500 2300
Wire Wire Line
	8600 1700 9100 1700
Connection ~ 9100 1700
Wire Wire Line
	9100 1700 9500 1700
Wire Wire Line
	9900 2400 9900 2300
Wire Wire Line
	9900 2300 9800 2300
Connection ~ 9500 2300
Wire Wire Line
	9500 2300 9500 2400
Wire Wire Line
	9600 2400 9600 2300
Connection ~ 9600 2300
Wire Wire Line
	9600 2300 9500 2300
Wire Wire Line
	9700 2400 9700 2300
Connection ~ 9700 2300
Wire Wire Line
	9700 2300 9600 2300
Wire Wire Line
	9800 2400 9800 2300
Connection ~ 9800 2300
Wire Wire Line
	9800 2300 9700 2300
$Comp
L power:GND #PWR071
U 1 1 5DEFA33E
P 7950 2900
F 0 "#PWR071" H 7950 2650 50  0001 C CNN
F 1 "GND" H 7955 2727 50  0000 C CNN
F 2 "" H 7950 2900 50  0001 C CNN
F 3 "" H 7950 2900 50  0001 C CNN
	1    7950 2900
	1    0    0    -1  
$EndComp
$Comp
L power:GND #PWR073
U 1 1 5DEFA37B
P 8750 2800
F 0 "#PWR073" H 8750 2550 50  0001 C CNN
F 1 "GND" H 8755 2627 50  0000 C CNN
F 2 "" H 8750 2800 50  0001 C CNN
F 3 "" H 8750 2800 50  0001 C CNN
	1    8750 2800
	1    0    0    -1  
$EndComp
Wire Wire Line
	9500 5600 9500 5500
Wire Wire Line
	9800 5400 9800 5500
Wire Wire Line
	9800 5500 9700 5500
Connection ~ 9500 5500
Wire Wire Line
	9500 5500 9500 5400
Wire Wire Line
	9700 5400 9700 5500
Connection ~ 9700 5500
Wire Wire Line
	9700 5500 9600 5500
Wire Wire Line
	9600 5400 9600 5500
Connection ~ 9600 5500
Wire Wire Line
	9600 5500 9500 5500
Wire Wire Line
	9000 2800 8750 2800
Wire Wire Line
	7950 2600 9000 2600
Text Label 10850 4800 0    50   ~ 0
USB_DM
Text Label 10850 4900 0    50   ~ 0
USB_DP
Text Label 10850 5000 0    50   ~ 0
SWDIO
Text Label 10850 5100 0    50   ~ 0
SWCLK
Wire Wire Line
	10850 5000 10300 5000
Wire Wire Line
	10850 5100 10300 5100
$Comp
L Device:R R63
U 1 1 5DF1E338
P 10550 4800
F 0 "R63" V 10500 5000 50  0000 C CNN
F 1 "100R" V 10550 4800 50  0000 C CNN
F 2 "Resistor_SMD:R_0603_1608Metric" V 10480 4800 50  0001 C CNN
F 3 "~" H 10550 4800 50  0001 C CNN
	1    10550 4800
	0    1    1    0   
$EndComp
$Comp
L Device:R R64
U 1 1 5DF1E4AD
P 10550 4900
F 0 "R64" V 10500 5100 50  0000 C CNN
F 1 "100R" V 10550 4900 50  0000 C CNN
F 2 "Resistor_SMD:R_0603_1608Metric" V 10480 4900 50  0001 C CNN
F 3 "~" H 10550 4900 50  0001 C CNN
	1    10550 4900
	0    1    1    0   
$EndComp
Wire Wire Line
	10300 4800 10400 4800
Wire Wire Line
	10400 4900 10300 4900
Wire Wire Line
	10700 4900 10850 4900
Wire Wire Line
	10850 4800 10700 4800
$Comp
L Connector_Generic:Conn_01x05 J3
U 1 1 5DF421FC
P 8250 6150
F 0 "J3" H 8330 6192 50  0000 L CNN
F 1 "SWD" H 8330 6101 50  0000 L CNN
F 2 "Connector_PinHeader_2.54mm:PinHeader_1x05_P2.54mm_Vertical" H 8250 6150 50  0001 C CNN
F 3 "~" H 8250 6150 50  0001 C CNN
	1    8250 6150
	1    0    0    -1  
$EndComp
Text Label 7650 2600 0    50   ~ 0
RST
Wire Wire Line
	7650 2600 7950 2600
Connection ~ 7950 2600
Text Label 7650 5950 0    50   ~ 0
RST
Text Label 7650 6050 0    50   ~ 0
3V3
$Comp
L power:GND #PWR069
U 1 1 5DF5645A
P 7450 6150
F 0 "#PWR069" H 7450 5900 50  0001 C CNN
F 1 "GND" H 7455 5977 50  0000 C CNN
F 2 "" H 7450 6150 50  0001 C CNN
F 3 "" H 7450 6150 50  0001 C CNN
	1    7450 6150
	1    0    0    -1  
$EndComp
Text Label 7650 6250 0    50   ~ 0
SWDIO
Text Label 7650 6350 0    50   ~ 0
SWCLK
Wire Wire Line
	7650 6350 8050 6350
Wire Wire Line
	8050 6250 7650 6250
Wire Wire Line
	7450 6150 8050 6150
Wire Wire Line
	7650 6050 8050 6050
$Comp
L Connector:USB_B_Micro J2
U 1 1 5DF6B392
P 7600 4500
F 0 "J2" H 7655 4967 50  0000 C CNN
F 1 "USB_B_Micro" H 7655 4876 50  0000 C CNN
F 2 "Connector_USB:USB_Micro-B_Molex_47346-0001" H 7750 4450 50  0001 C CNN
F 3 "~" H 7750 4450 50  0001 C CNN
	1    7600 4500
	1    0    0    -1  
$EndComp
$Comp
L power:GND #PWR070
U 1 1 5DF6B46A
P 7600 5000
F 0 "#PWR070" H 7600 4750 50  0001 C CNN
F 1 "GND" H 7605 4827 50  0000 C CNN
F 2 "" H 7600 5000 50  0001 C CNN
F 3 "" H 7600 5000 50  0001 C CNN
	1    7600 5000
	1    0    0    -1  
$EndComp
Text Label 7900 4600 0    50   ~ 0
USB_DM
Text Label 7900 4500 0    50   ~ 0
USB_DP
Wire Wire Line
	7900 4500 8250 4500
Wire Wire Line
	8250 4500 8250 4350
$Comp
L Device:R R62
U 1 1 5DF6F336
P 8250 4200
F 0 "R62" H 8320 4246 50  0000 L CNN
F 1 "1k5" H 8320 4155 50  0000 L CNN
F 2 "Resistor_SMD:R_0603_1608Metric" V 8180 4200 50  0001 C CNN
F 3 "~" H 8250 4200 50  0001 C CNN
	1    8250 4200
	1    0    0    -1  
$EndComp
Text Label 8250 3950 0    50   ~ 0
3V3
Wire Wire Line
	7600 4900 7600 4950
Wire Wire Line
	8250 3950 8250 4050
$Comp
L Device:R R61
U 1 1 5DF823DC
P 7450 5800
F 0 "R61" H 7520 5846 50  0000 L CNN
F 1 "10k" H 7520 5755 50  0000 L CNN
F 2 "Resistor_SMD:R_0603_1608Metric" V 7380 5800 50  0001 C CNN
F 3 "~" H 7450 5800 50  0001 C CNN
	1    7450 5800
	1    0    0    -1  
$EndComp
Text Label 7450 5650 0    50   ~ 0
3V3
Wire Wire Line
	7450 5950 8050 5950
$Comp
L Connector:TestPoint TP2
U 1 1 5DF189BA
P 4400 2150
F 0 "TP2" H 4350 2350 50  0000 L CNN
F 1 "TestPoint" V 4400 1750 50  0000 L CNN
F 2 "TestPoint:TestPoint_THTPad_1.5x1.5mm_Drill0.7mm" H 4600 2150 50  0001 C CNN
F 3 "~" H 4600 2150 50  0001 C CNN
	1    4400 2150
	1    0    0    -1  
$EndComp
Connection ~ 4400 2150
Wire Wire Line
	4400 2150 4300 2150
Wire Wire Line
	4550 2900 4550 2150
Connection ~ 4550 2900
Wire Wire Line
	8700 4300 9000 4300
Wire Wire Line
	8700 4400 9000 4400
Wire Wire Line
	7500 4900 7500 4950
Wire Wire Line
	7500 4950 7600 4950
Connection ~ 7600 4950
Wire Wire Line
	7600 4950 7600 5000
$EndSCHEMATC
