EESchema Schematic File Version 4
LIBS:ni12_clock-cache
EELAYER 26 0
EELAYER END
$Descr A4 11693 8268
encoding utf-8
Sheet 3 10
Title ""
Date ""
Rev ""
Comp ""
Comment1 ""
Comment2 ""
Comment3 ""
Comment4 ""
$EndDescr
Text HLabel 5700 2050 2    50   Output ~ 0
3V3
Text HLabel 3600 2050 0    50   Input ~ 0
12V
$Comp
L power:GND #PWR012
U 1 1 5CB83F4F
P 4900 2500
F 0 "#PWR012" H 4900 2250 50  0001 C CNN
F 1 "GND" H 4905 2327 50  0000 C CNN
F 2 "" H 4900 2500 50  0001 C CNN
F 3 "" H 4900 2500 50  0001 C CNN
	1    4900 2500
	1    0    0    -1  
$EndComp
Wire Wire Line
	4900 2500 5250 2500
Connection ~ 4900 2500
Wire Wire Line
	4900 2350 4900 2500
Wire Wire Line
	5200 2050 5250 2050
$Comp
L Device:C C10
U 1 1 5CB82F0A
P 5250 2250
F 0 "C10" H 5365 2296 50  0000 L CNN
F 1 "100n" H 5365 2205 50  0000 L CNN
F 2 "Capacitor_SMD:C_0603_1608Metric" H 5288 2100 50  0001 C CNN
F 3 "~" H 5250 2250 50  0001 C CNN
	1    5250 2250
	1    0    0    -1  
$EndComp
Wire Wire Line
	5250 2100 5250 2050
Connection ~ 5250 2050
Wire Wire Line
	5250 2400 5250 2500
Connection ~ 5250 2500
Wire Wire Line
	5250 2050 5650 2050
Wire Wire Line
	5650 2100 5650 2050
Connection ~ 5650 2050
Wire Wire Line
	5650 2050 5700 2050
Wire Wire Line
	5650 2400 5650 2500
Wire Wire Line
	5250 2500 5650 2500
$Comp
L Regulator_Linear:LM1117-3.3 U8
U 1 1 5DF4EDF8
P 4900 2050
F 0 "U8" H 4900 2292 50  0000 C CNN
F 1 "LM1117-3.3" H 4900 2201 50  0000 C CNN
F 2 "Package_TO_SOT_SMD:SOT-223-3_TabPin2" H 4900 2050 50  0001 C CNN
F 3 "http://www.ti.com/lit/ds/symlink/lm1117.pdf" H 4900 2050 50  0001 C CNN
	1    4900 2050
	1    0    0    -1  
$EndComp
$Comp
L Device:C C23
U 1 1 5DF8C34A
P 5650 2250
F 0 "C23" H 5765 2296 50  0000 L CNN
F 1 "10u" H 5765 2205 50  0000 L CNN
F 2 "Capacitor_SMD:C_0805_2012Metric" H 5688 2100 50  0001 C CNN
F 3 "~" H 5650 2250 50  0001 C CNN
	1    5650 2250
	1    0    0    -1  
$EndComp
$Comp
L Device:C C9
U 1 1 5DF8C552
P 4350 2200
F 0 "C9" H 4465 2246 50  0000 L CNN
F 1 "100n" H 4465 2155 50  0000 L CNN
F 2 "Capacitor_SMD:C_0603_1608Metric" H 4388 2050 50  0001 C CNN
F 3 "~" H 4350 2200 50  0001 C CNN
	1    4350 2200
	1    0    0    -1  
$EndComp
Connection ~ 4350 2050
Wire Wire Line
	4350 2050 4600 2050
Wire Wire Line
	3900 2350 3900 2500
Wire Wire Line
	3900 2500 4350 2500
Wire Wire Line
	4350 2350 4350 2500
Connection ~ 4350 2500
Wire Wire Line
	4350 2500 4900 2500
Wire Wire Line
	3600 2050 3900 2050
$Comp
L Device:C C8
U 1 1 5DF8C8AF
P 3900 2200
F 0 "C8" H 4015 2246 50  0000 L CNN
F 1 "10u" H 4015 2155 50  0000 L CNN
F 2 "Capacitor_SMD:C_0805_2012Metric" H 3938 2050 50  0001 C CNN
F 3 "~" H 3900 2200 50  0001 C CNN
	1    3900 2200
	1    0    0    -1  
$EndComp
Connection ~ 3900 2050
Wire Wire Line
	3900 2050 4350 2050
$EndSCHEMATC
