EESchema Schematic File Version 4
LIBS:ni12_clock-cache
EELAYER 26 0
EELAYER END
$Descr A4 11693 8268
encoding utf-8
Sheet 2 10
Title "nixie in12a clock"
Date "2019-04-10"
Rev "1"
Comp "Michał Grzegorzek"
Comment1 "k0201"
Comment2 ""
Comment3 ""
Comment4 ""
$EndDescr
$Comp
L Device:C C7
U 1 1 5CAE5957
P 7100 3250
F 0 "C7" H 7215 3296 50  0000 L CNN
F 1 "4.7u" H 7215 3205 50  0000 L CNN
F 2 "Capacitor_THT:CP_Radial_D8.0mm_P5.00mm" H 7138 3100 50  0001 C CNN
F 3 "~" H 7100 3250 50  0001 C CNN
	1    7100 3250
	1    0    0    -1  
$EndComp
$Comp
L Device:C C6
U 1 1 5CAE5EAC
P 6800 3250
F 0 "C6" H 6685 3204 50  0000 R CNN
F 1 "100n" H 6685 3295 50  0000 R CNN
F 2 "Capacitor_SMD:C_1812_4532Metric_Pad1.30x3.40mm_HandSolder" H 6838 3100 50  0001 C CNN
F 3 "~" H 6800 3250 50  0001 C CNN
	1    6800 3250
	1    0    0    1   
$EndComp
$Comp
L Device:C C4
U 1 1 5CAE6028
P 3700 3250
F 0 "C4" H 3815 3296 50  0000 L CNN
F 1 "100n" H 3815 3205 50  0000 L CNN
F 2 "Capacitor_SMD:C_2816_7142Metric_Pad3.20x4.45mm_HandSolder" H 3738 3100 50  0001 C CNN
F 3 "~" H 3700 3250 50  0001 C CNN
	1    3700 3250
	1    0    0    -1  
$EndComp
$Comp
L Device:C C3
U 1 1 5CAE61F3
P 3300 3250
F 0 "C3" H 3415 3296 50  0000 L CNN
F 1 "100u" H 3415 3205 50  0000 L CNN
F 2 "Capacitor_THT:CP_Radial_D5.0mm_P2.00mm" H 3338 3100 50  0001 C CNN
F 3 "~" H 3300 3250 50  0001 C CNN
	1    3300 3250
	1    0    0    -1  
$EndComp
$Comp
L Device:C C5
U 1 1 5CAE6353
P 4350 4150
F 0 "C5" H 4465 4196 50  0000 L CNN
F 1 "100n" H 4465 4105 50  0000 L CNN
F 2 "Capacitor_SMD:C_0603_1608Metric" H 4388 4000 50  0001 C CNN
F 3 "~" H 4350 4150 50  0001 C CNN
	1    4350 4150
	1    0    0    -1  
$EndComp
$Comp
L Device:R R2
U 1 1 5CAE664A
P 6350 3100
F 0 "R2" H 6420 3146 50  0000 L CNN
F 1 "1.5MEG" H 6420 3055 50  0000 L CNN
F 2 "Resistor_SMD:R_0805_2012Metric_Pad1.15x1.40mm_HandSolder" V 6280 3100 50  0001 C CNN
F 3 "~" H 6350 3100 50  0001 C CNN
	1    6350 3100
	1    0    0    -1  
$EndComp
$Comp
L Device:R R3
U 1 1 5CAE6C07
P 6350 4150
F 0 "R3" H 6420 4196 50  0000 L CNN
F 1 "10k" H 6420 4105 50  0000 L CNN
F 2 "Resistor_SMD:R_0805_2012Metric_Pad1.15x1.40mm_HandSolder" V 6280 4150 50  0001 C CNN
F 3 "~" H 6350 4150 50  0001 C CNN
	1    6350 4150
	1    0    0    -1  
$EndComp
$Comp
L Device:R R1
U 1 1 5CAE6D44
P 5800 3800
F 0 "R1" H 5870 3846 50  0000 L CNN
F 1 "50m" H 5870 3755 50  0000 L CNN
F 2 "Resistor_SMD:R_1210_3225Metric_Pad1.42x2.65mm_HandSolder" V 5730 3800 50  0001 C CNN
F 3 "~" H 5800 3800 50  0001 C CNN
	1    5800 3800
	1    0    0    -1  
$EndComp
$Comp
L Device:R_POT RV1
U 1 1 5CAE6FCC
P 6350 3750
F 0 "RV1" H 6280 3704 50  0000 R CNN
F 1 "10k" H 6280 3795 50  0000 R CNN
F 2 "Potentiometer_THT:Potentiometer_Vishay_T73XW_Horizontal" H 6350 3750 50  0001 C CNN
F 3 "~" H 6350 3750 50  0001 C CNN
F 4 "64W10K" H 6350 3750 50  0001 C CNN "partnbr"
	1    6350 3750
	-1   0    0    1   
$EndComp
$Comp
L Device:D D1
U 1 1 5CAE76C7
P 5950 2800
F 0 "D1" H 5950 2584 50  0000 C CNN
F 1 "D" H 5950 2675 50  0001 C CNN
F 2 "Diode_THT:D_DO-201AD_P12.70mm_Horizontal" H 5950 2800 50  0001 C CNN
F 3 "~" H 5950 2800 50  0001 C CNN
F 4 "UF5404" H 5950 2675 50  0000 C CNN "partnbr"
	1    5950 2800
	-1   0    0    1   
$EndComp
$Comp
L Transistor_FET:IRF740 Q1
U 1 1 5CAE7F1C
P 5700 3400
F 0 "Q1" H 5906 3446 50  0000 L CNN
F 1 "IRF740" H 5906 3355 50  0000 L CNN
F 2 "Package_TO_SOT_THT:TO-220-3_Vertical" H 5950 3325 50  0001 L CIN
F 3 "http://www.vishay.com/docs/91054/91054.pdf" H 5700 3400 50  0001 L CNN
	1    5700 3400
	1    0    0    -1  
$EndComp
$Comp
L Device:L L1
U 1 1 5CAE9113
P 5400 2800
F 0 "L1" V 5681 2800 50  0000 C CNN
F 1 "100uH" V 5590 2800 50  0000 C CNN
F 2 "Inductor_SMD:L_Bourns_SDR1806" H 5400 2800 50  0001 C CNN
F 3 "" H 5400 2800 50  0001 C CNN
F 4 "DL50-100" V 5499 2800 50  0000 C CNN "partnmb"
	1    5400 2800
	0    -1   -1   0   
$EndComp
$Comp
L power:GND #PWR05
U 1 1 5CAE9CCC
P 4300 3250
F 0 "#PWR05" H 4300 3000 50  0001 C CNN
F 1 "GND" H 4305 3077 50  0000 C CNN
F 2 "" H 4300 3250 50  0001 C CNN
F 3 "" H 4300 3250 50  0001 C CNN
	1    4300 3250
	1    0    0    -1  
$EndComp
Wire Wire Line
	4450 3200 4300 3200
Wire Wire Line
	4300 3200 4300 3250
Wire Wire Line
	4450 4000 4350 4000
Wire Wire Line
	4850 3000 4850 2800
Wire Wire Line
	4850 2800 4550 2800
Connection ~ 4850 2800
Wire Wire Line
	5250 2800 4850 2800
Wire Wire Line
	5550 2800 5800 2800
Wire Wire Line
	6100 2800 6350 2800
Wire Wire Line
	6350 2800 6350 2950
Wire Wire Line
	6350 3250 6350 3550
Wire Wire Line
	6350 4000 6350 3950
$Comp
L power:GND #PWR06
U 1 1 5CAEE997
P 4350 4350
F 0 "#PWR06" H 4350 4100 50  0001 C CNN
F 1 "GND" H 4355 4177 50  0000 C CNN
F 2 "" H 4350 4350 50  0001 C CNN
F 3 "" H 4350 4350 50  0001 C CNN
	1    4350 4350
	1    0    0    -1  
$EndComp
$Comp
L power:GND #PWR09
U 1 1 5CAEED1E
P 6350 4350
F 0 "#PWR09" H 6350 4100 50  0001 C CNN
F 1 "GND" H 6355 4177 50  0000 C CNN
F 2 "" H 6350 4350 50  0001 C CNN
F 3 "" H 6350 4350 50  0001 C CNN
	1    6350 4350
	1    0    0    -1  
$EndComp
$Comp
L power:GND #PWR08
U 1 1 5CAF02A6
P 5800 4350
F 0 "#PWR08" H 5800 4100 50  0001 C CNN
F 1 "GND" H 5805 4177 50  0000 C CNN
F 2 "" H 5800 4350 50  0001 C CNN
F 3 "" H 5800 4350 50  0001 C CNN
	1    5800 4350
	1    0    0    -1  
$EndComp
Wire Wire Line
	5250 3600 5800 3600
Wire Wire Line
	5800 3650 5800 3600
Connection ~ 6350 2800
Wire Wire Line
	6350 2800 6800 2800
Wire Wire Line
	6800 3100 6800 2800
Connection ~ 6800 2800
Wire Wire Line
	6800 2800 7100 2800
Wire Wire Line
	7100 2800 7100 3100
Wire Wire Line
	6800 3400 6800 4350
Wire Wire Line
	7100 4350 7100 3400
$Comp
L power:GND #PWR010
U 1 1 5CAF2E85
P 6800 4350
F 0 "#PWR010" H 6800 4100 50  0001 C CNN
F 1 "GND" H 6805 4177 50  0000 C CNN
F 2 "" H 6800 4350 50  0001 C CNN
F 3 "" H 6800 4350 50  0001 C CNN
	1    6800 4350
	1    0    0    -1  
$EndComp
$Comp
L power:GND #PWR011
U 1 1 5CAF3185
P 7100 4350
F 0 "#PWR011" H 7100 4100 50  0001 C CNN
F 1 "GND" H 7105 4177 50  0000 C CNN
F 2 "" H 7100 4350 50  0001 C CNN
F 3 "" H 7100 4350 50  0001 C CNN
	1    7100 4350
	1    0    0    -1  
$EndComp
Wire Wire Line
	5350 3800 5250 3800
Wire Wire Line
	5250 4000 5350 4000
Wire Wire Line
	5350 3800 5350 4000
Connection ~ 5350 4000
Wire Wire Line
	5350 4000 5350 4350
$Comp
L power:GND #PWR07
U 1 1 5CAF3FF0
P 5350 4350
F 0 "#PWR07" H 5350 4100 50  0001 C CNN
F 1 "GND" H 5355 4177 50  0000 C CNN
F 2 "" H 5350 4350 50  0001 C CNN
F 3 "" H 5350 4350 50  0001 C CNN
	1    5350 4350
	1    0    0    -1  
$EndComp
Wire Wire Line
	3300 3100 3300 2800
Wire Wire Line
	3700 3100 3700 2800
Connection ~ 3700 2800
Wire Wire Line
	3700 2800 3300 2800
$Comp
L power:GND #PWR03
U 1 1 5CAF75A3
P 3300 4350
F 0 "#PWR03" H 3300 4100 50  0001 C CNN
F 1 "GND" H 3305 4177 50  0000 C CNN
F 2 "" H 3300 4350 50  0001 C CNN
F 3 "" H 3300 4350 50  0001 C CNN
	1    3300 4350
	1    0    0    -1  
$EndComp
$Comp
L power:GND #PWR04
U 1 1 5CAF78BB
P 3700 4350
F 0 "#PWR04" H 3700 4100 50  0001 C CNN
F 1 "GND" H 3705 4177 50  0000 C CNN
F 2 "" H 3700 4350 50  0001 C CNN
F 3 "" H 3700 4350 50  0001 C CNN
	1    3700 4350
	1    0    0    -1  
$EndComp
Wire Wire Line
	4350 4350 4350 4300
Wire Wire Line
	6350 4350 6350 4300
Wire Wire Line
	5800 3950 5800 4350
Wire Wire Line
	3300 3400 3300 4350
Wire Wire Line
	3700 3400 3700 4350
Wire Wire Line
	6200 3750 6150 3750
Wire Wire Line
	6150 3750 6150 3950
Wire Wire Line
	6150 3950 6350 3950
Connection ~ 6350 3950
Wire Wire Line
	6350 3950 6350 3900
Wire Wire Line
	4850 4200 4850 4650
Wire Wire Line
	4850 4650 6050 4650
Wire Wire Line
	6050 4650 6050 3550
Wire Wire Line
	6050 3550 6350 3550
Connection ~ 6350 3550
Wire Wire Line
	6350 3550 6350 3600
Text HLabel 7100 2800 2    50   Output ~ 0
200V
Text HLabel 3050 2800 0    50   Input ~ 0
12V
Wire Wire Line
	3050 2800 3300 2800
Connection ~ 3300 2800
$Comp
L ni12_clock-rescue:MAX1771-MAX1771-ni12_zegar-rescue IC1
U 1 1 5CC831A2
P 4850 3600
AR Path="/5CC831A2" Ref="IC1"  Part="1" 
AR Path="/5CB09374/5CC831A2" Ref="IC1"  Part="1" 
F 0 "IC1" H 4850 4381 50  0000 C CNN
F 1 "MAX1771" H 4850 4290 50  0000 C CNN
F 2 "Package_SO:SO-8_3.9x4.9mm_P1.27mm" H 5100 4000 50  0001 L BNN
F 3 "" H 4850 3600 50  0001 L BNN
F 4 "Maxim Integrated" H 4950 4000 50  0001 L BNN "Pole4"
F 5 "Unavailable" H 5100 4000 50  0001 L BNN "Pole5"
F 6 "None" H 5100 4000 50  0001 L BNN "Pole6"
F 7 "max1771 12v or adjustable, high-efficiency, low iq, step-up dc-dc controller high-efficiency even at low input voltag..." H 4850 3950 50  0001 L BNN "Pole7"
F 8 "SOIC-8 Maxim Integrated" H 4850 3950 50  0001 L BNN "Pole8"
	1    4850 3600
	1    0    0    -1  
$EndComp
Wire Wire Line
	5250 3400 5500 3400
Wire Wire Line
	5800 2800 5800 3200
$Comp
L Device:C C17
U 1 1 5CB381C8
P 4550 2650
F 0 "C17" H 4665 2696 50  0000 L CNN
F 1 "100n" H 4665 2605 50  0000 L CNN
F 2 "Capacitor_SMD:C_0603_1608Metric" H 4588 2500 50  0001 C CNN
F 3 "~" H 4550 2650 50  0001 C CNN
	1    4550 2650
	1    0    0    -1  
$EndComp
Connection ~ 4550 2800
Wire Wire Line
	4550 2800 3700 2800
$Comp
L power:GND #PWR065
U 1 1 5CB3890A
P 4550 2450
F 0 "#PWR065" H 4550 2200 50  0001 C CNN
F 1 "GND" H 4555 2277 50  0000 C CNN
F 2 "" H 4550 2450 50  0001 C CNN
F 3 "" H 4550 2450 50  0001 C CNN
	1    4550 2450
	-1   0    0    1   
$EndComp
Wire Wire Line
	4550 2500 4550 2450
$EndSCHEMATC
